<svg xmlns="http://www.w3.org/2000/svg" width="13.718" height="14.631" viewBox="0 0 13.718 14.631">
  <g id="arrow_indicator" data-name="arrow indicator" transform="translate(-326.598 -1455.685)">
    <path id="Path_25974" data-name="Path 25974" d="M871,629.523,875.473,634,871,638.469" transform="translate(-542.988 829.004)" fill="none" stroke="#e2c2e8" stroke-linecap="round" stroke-width="2"/>
    <path id="Path_25975" data-name="Path 25975" d="M871,629.523l5.9,5.9-5.9,5.9" transform="translate(-538 827.576)" fill="none" stroke="#c486cf" stroke-linecap="round" stroke-width="2"/>
  </g>
</svg>
