<svg id="linkedin" xmlns="http://www.w3.org/2000/svg" width="31.151" height="31.151" viewBox="0 0 31.151 31.151">
  <g id="Group_1296" data-name="Group 1296" transform="translate(0)">
    <path id="Path_25897" data-name="Path 25897" d="M3.437,0H25.482a3.437,3.437,0,0,1,3.437,3.437V25.5a3.437,3.437,0,0,1-3.437,3.437H3.437A3.437,3.437,0,0,1,0,25.5V3.437A3.437,3.437,0,0,1,3.437,0Z" transform="translate(1.112 1.112)" fill="#fff"/>
    <path id="_006-linkedin" data-name="006-linkedin" d="M28.333,0H2.818A2.818,2.818,0,0,0,0,2.818V28.334a2.818,2.818,0,0,0,2.818,2.818H28.333a2.818,2.818,0,0,0,2.818-2.818V2.818A2.818,2.818,0,0,0,28.333,0ZM9.639,26.9a.82.82,0,0,1-.82.82H5.329a.82.82,0,0,1-.82-.82V12.265a.82.82,0,0,1,.82-.82H8.819a.82.82,0,0,1,.82.82ZM7.074,10.066A3.316,3.316,0,1,1,10.39,6.749,3.316,3.316,0,0,1,7.074,10.066Zm20.808,16.9a.754.754,0,0,1-.754.754H23.382a.754.754,0,0,1-.754-.754V20.1c0-1.024.3-4.487-2.676-4.487-2.309,0-2.777,2.37-2.871,3.434v7.917a.754.754,0,0,1-.754.754H12.7a.754.754,0,0,1-.754-.754V12.2a.754.754,0,0,1,.754-.754h3.623a.754.754,0,0,1,.754.754v1.277c.856-1.285,2.128-2.276,4.837-2.276,6,0,5.964,5.6,5.964,8.683v7.082Z" transform="translate(0)"/>
  </g>
</svg>
