<svg id="_002-phone-call" data-name="002-phone-call" xmlns="http://www.w3.org/2000/svg" width="19.902" height="19.932" viewBox="0 0 19.902 19.932">
  <g id="Group_1328" data-name="Group 1328" transform="translate(0 0)">
    <path id="Path_25904" data-name="Path 25904" d="M16.082,38.6a1.96,1.96,0,0,0-1.422-.652,2.027,2.027,0,0,0-1.439.648l-1.329,1.325c-.109-.059-.219-.114-.324-.168-.151-.076-.294-.147-.416-.223A14.448,14.448,0,0,1,7.69,36.375a8.523,8.523,0,0,1-1.136-1.792c.345-.315.665-.644.976-.959.118-.118.236-.24.353-.358a1.93,1.93,0,0,0,0-2.911L6.735,29.206c-.13-.13-.265-.265-.391-.4-.252-.261-.517-.53-.791-.782a1.991,1.991,0,0,0-1.409-.618,2.061,2.061,0,0,0-1.43.618l-.008.008-1.43,1.443a3.078,3.078,0,0,0-.913,1.956A7.374,7.374,0,0,0,.9,34.553a18.113,18.113,0,0,0,3.218,5.368,19.8,19.8,0,0,0,6.592,5.162,10.271,10.271,0,0,0,3.7,1.094c.088,0,.181.008.265.008A3.17,3.17,0,0,0,17.1,45.141c0-.008.013-.013.017-.021a9.564,9.564,0,0,1,.736-.761c.181-.172.366-.353.547-.543a2.1,2.1,0,0,0,.635-1.456,2.022,2.022,0,0,0-.648-1.443Zm1.506,4.43s0,0,0,0c-.164.177-.332.337-.513.513a11.061,11.061,0,0,0-.812.841,2.028,2.028,0,0,1-1.582.669c-.063,0-.13,0-.194,0a9.124,9.124,0,0,1-3.281-.984A18.686,18.686,0,0,1,5,39.2a17.078,17.078,0,0,1-3.029-5.044A6.006,6.006,0,0,1,1.5,31.524a1.931,1.931,0,0,1,.581-1.249L3.513,28.84a.956.956,0,0,1,.639-.3.9.9,0,0,1,.614.294l.013.013c.257.24.5.488.757.753.13.135.265.269.4.408l1.148,1.148a.8.8,0,0,1,0,1.3c-.122.122-.24.244-.362.362-.353.362-.69.7-1.056,1.026-.008.008-.017.013-.021.021a.858.858,0,0,0-.219.955l.013.038A9.22,9.22,0,0,0,6.8,37.081l0,0a15.44,15.44,0,0,0,3.736,3.4,5.746,5.746,0,0,0,.517.282c.151.076.294.147.416.223.017.008.034.021.05.029a.912.912,0,0,0,.416.105.9.9,0,0,0,.639-.29l1.439-1.439a.952.952,0,0,1,.635-.315.857.857,0,0,1,.606.307l.008.008,2.318,2.318A.832.832,0,0,1,17.588,43.03Z" transform="translate(-0.344 -26.253)" fill="#fff"/>
    <path id="Path_25905" data-name="Path 25905" d="M245.411,87.052a5.414,5.414,0,0,1,4.409,4.409.564.564,0,0,0,.56.471.751.751,0,0,0,.1-.008.568.568,0,0,0,.467-.656,6.546,6.546,0,0,0-5.334-5.334.571.571,0,0,0-.656.463A.562.562,0,0,0,245.411,87.052Z" transform="translate(-234.654 -82.311)" fill="#fff"/>
    <path id="Path_25906" data-name="Path 25906" d="M258.219,8.792A10.779,10.779,0,0,0,249.435.009a.567.567,0,1,0-.185,1.119,9.628,9.628,0,0,1,7.85,7.85.564.564,0,0,0,.559.471.75.75,0,0,0,.1-.008A.557.557,0,0,0,258.219,8.792Z" transform="translate(-238.325 0)" fill="#fff"/>
  </g>
</svg>
